[{"tablename" : "ad_element", "data" : {"ad_element_id":632,
 "columnname":"Workflow_ID",
 "ad_client_id":0,
 "ad_org_id":0,
 "ad_reference_id":18,
 "ad_reference_value_id":174,
 "created":"1999-11-19T10:07:43",
 "createdby":0,
 "description":"Workflow or tasks",
 "entitytype":"Manufacturing Management",
 "fieldlength":22,
 "help":"The Workflow field identifies a unique workflow.   A workflow is a grouping of related tasks, in a specified sequence and optionally including approvals",
 "isactive":"Y",
 "name":"Workflow",
 "po_description":null,
 "po_help":null,
 "po_name":null,
 "po_printname":null,
 "printname":"Workflow",
 "updated":"2000-01-02T00:00:00",
 "updatedby":0}, "children" : []},
 {"tablename" : "ad_element", "data" : {"ad_element_id":1753,
 "columnname":"AllowUoMFractions",
 "ad_client_id":0,
 "ad_org_id":0,
 "ad_reference_id":20,
 "ad_reference_value_id":null,
 "created":"2002-06-15T21:03:57",
 "createdby":0,
 "description":"Allow Unit of Measure Fractions",
 "entitytype":"Manufacturing Management",
 "fieldlength":1,
 "help":"If allowed, you can enter UoM Fractions",
 "isactive":"Y",
 "name":"Allow UoM Fractions",
 "po_description":null,
 "po_help":null,
 "po_name":null,
 "po_printname":null,
 "printname":"Allow UoM Fractions",
 "updated":"2000-01-02T00:00:00",
 "updatedby":0}, "children" : []},
 {"tablename" : "ad_element", "data" : {"ad_element_id":1759,
 "columnname":"TimeSlotEnd",
 "ad_client_id":0,
 "ad_org_id":0,
 "ad_reference_id":24,
 "ad_reference_value_id":null,
 "created":"2002-06-15T21:03:57",
 "createdby":0,
 "description":"Time when timeslot ends",
 "entitytype":"Manufacturing Management",
 "fieldlength":7,
 "help":"Ending time for time slots",
 "isactive":"Y",
 "name":"Slot End",
 "po_description":null,
 "po_help":null,
 "po_name":null,
 "po_printname":null,
 "printname":"Slot End",
 "updated":"2000-01-02T00:00:00",
 "updatedby":0}, "children" : []},
 {"tablename" : "ad_element", "data" : {"ad_element_id":1760,
 "columnname":"TimeSlotStart",
 "ad_client_id":0,
 "ad_org_id":0,
 "ad_reference_id":24,
 "ad_reference_value_id":null,
 "created":"2002-06-15T21:03:57",
 "createdby":0,
 "description":"Time when timeslot starts",
 "entitytype":"Manufacturing Management",
 "fieldlength":7,
 "help":"Starting time for time slots",
 "isactive":"Y",
 "name":"Slot Start",
 "po_description":null,
 "po_help":null,
 "po_name":null,
 "po_printname":null,
 "printname":"Slot Start",
 "updated":"2000-01-02T00:00:00",
 "updatedby":0}, "children" : []},
 {"tablename" : "ad_element", "data" : {"ad_element_id":1764,
 "columnname":"IsDateSlot",
 "ad_client_id":0,
 "ad_org_id":0,
 "ad_reference_id":20,
 "ad_reference_value_id":null,
 "created":"2002-06-15T21:03:57",
 "createdby":0,
 "description":"Resource has day slot availability",
 "entitytype":"Manufacturing Management",
 "fieldlength":1,
 "help":"Resource is only available on certain days",
 "isactive":"Y",
 "name":"Day Slot",
 "po_description":null,
 "po_help":null,
 "po_name":null,
 "po_printname":null,
 "printname":"Day Slot",
 "updated":"2000-01-02T00:00:00",
 "updatedby":0}, "children" : []},
 {"tablename" : "ad_element", "data" : {"ad_element_id":1768,
 "columnname":"IsTimeSlot",
 "ad_client_id":0,
 "ad_org_id":0,
 "ad_reference_id":20,
 "ad_reference_value_id":null,
 "created":"2002-06-15T21:03:57",
 "createdby":0,
 "description":"Resource has time slot availability",
 "entitytype":"Manufacturing Management",
 "fieldlength":1,
 "help":"Resource is only available at certain times",
 "isactive":"Y",
 "name":"Time Slot",
 "po_description":null,
 "po_help":null,
 "po_name":null,
 "po_printname":null,
 "printname":"Time Slot",
 "updated":"2000-01-02T00:00:00",
 "updatedby":0}, "children" : []},
 {"tablename" : "ad_element", "data" : {"ad_element_id":1769,
 "columnname":"OnFriday",
 "ad_client_id":0,
 "ad_org_id":0,
 "ad_reference_id":20,
 "ad_reference_value_id":null,
 "created":"2002-06-15T21:03:57",
 "createdby":0,
 "description":"Available on Fridays",
 "entitytype":"Manufacturing Management",
 "fieldlength":1,
 "help":null,
 "isactive":"Y",
 "name":"Friday",
 "po_description":null,
 "po_help":null,
 "po_name":null,
 "po_printname":null,
 "printname":"Fr",
 "updated":"2000-01-02T00:00:00",
 "updatedby":0}, "children" : []},
 {"tablename" : "ad_element", "data" : {"ad_element_id":1770,
 "columnname":"OnMonday",
 "ad_client_id":0,
 "ad_org_id":0,
 "ad_reference_id":20,
 "ad_reference_value_id":null,
 "created":"2002-06-15T21:03:57",
 "createdby":0,
 "description":"Available on Mondays",
 "entitytype":"Manufacturing Management",
 "fieldlength":1,
 "help":null,
 "isactive":"Y",
 "name":"Monday",
 "po_description":null,
 "po_help":null,
 "po_name":null,
 "po_printname":null,
 "printname":"Mo",
 "updated":"2000-01-02T00:00:00",
 "updatedby":0}, "children" : []},
 {"tablename" : "ad_element", "data" : {"ad_element_id":1771,
 "columnname":"OnSaturday",
 "ad_client_id":0,
 "ad_org_id":0,
 "ad_reference_id":20,
 "ad_reference_value_id":null,
 "created":"2002-06-15T21:03:57",
 "createdby":0,
 "description":"Available on Saturday",
 "entitytype":"Manufacturing Management",
 "fieldlength":1,
 "help":null,
 "isactive":"Y",
 "name":"Saturday",
 "po_description":null,
 "po_help":null,
 "po_name":null,
 "po_printname":null,
 "printname":"Sa",
 "updated":"2000-01-02T00:00:00",
 "updatedby":0}, "children" : []},
 {"tablename" : "ad_element", "data" : {"ad_element_id":1772,
 "columnname":"OnSunday",
 "ad_client_id":0,
 "ad_org_id":0,
 "ad_reference_id":20,
 "ad_reference_value_id":null,
 "created":"2002-06-15T21:03:57",
 "createdby":0,
 "description":"Available on Sundays",
 "entitytype":"Manufacturing Management",
 "fieldlength":1,
 "help":null,
 "isactive":"Y",
 "name":"Sunday",
 "po_description":null,
 "po_help":null,
 "po_name":null,
 "po_printname":null,
 "printname":"Su",
 "updated":"2000-01-02T00:00:00",
 "updatedby":0}, "children" : []},
 {"tablename" : "ad_element", "data" : {"ad_element_id":1773,
 "columnname":"OnThursday",
 "ad_client_id":0,
 "ad_org_id":0,
 "ad_reference_id":20,
 "ad_reference_value_id":null,
 "created":"2002-06-15T21:03:57",
 "createdby":0,
 "description":"Available on Thursdays",
 "entitytype":"Manufacturing Management",
 "fieldlength":1,
 "help":null,
 "isactive":"Y",
 "name":"Thursday",
 "po_description":null,
 "po_help":null,
 "po_name":null,
 "po_printname":null,
 "printname":"Th",
 "updated":"2000-01-02T00:00:00",
 "updatedby":0}, "children" : []},
 {"tablename" : "ad_element", "data" : {"ad_element_id":1774,
 "columnname":"OnTuesday",
 "ad_client_id":0,
 "ad_org_id":0,
 "ad_reference_id":20,
 "ad_reference_value_id":null,
 "created":"2002-06-15T21:03:57",
 "createdby":0,
 "description":"Available on Tuesdays",
 "entitytype":"Manufacturing Management",
 "fieldlength":1,
 "help":null,
 "isactive":"Y",
 "name":"Tuesday",
 "po_description":null,
 "po_help":null,
 "po_name":null,
 "po_printname":null,
 "printname":"Tu",
 "updated":"2000-01-02T00:00:00",
 "updatedby":0}, "children" : []},
 {"tablename" : "ad_element", "data" : {"ad_element_id":1775,
 "columnname":"OnWednesday",
 "ad_client_id":0,
 "ad_org_id":0,
 "ad_reference_id":20,
 "ad_reference_value_id":null,
 "created":"2002-06-15T21:03:57",
 "createdby":0,
 "description":"Available on Wednesdays",
 "entitytype":"Manufacturing Management",
 "fieldlength":1,
 "help":null,
 "isactive":"Y",
 "name":"Wednesday",
 "po_description":null,
 "po_help":null,
 "po_name":null,
 "po_printname":null,
 "printname":"We",
 "updated":"2000-01-02T00:00:00",
 "updatedby":0}, "children" : []},
 {"tablename" : "ad_element", "data" : {"ad_element_id":1785,
 "columnname":"IsSingleAssignment",
 "ad_client_id":0,
 "ad_org_id":0,
 "ad_reference_id":20,
 "ad_reference_value_id":null,
 "created":"2002-06-20T21:02:56",
 "createdby":0,
 "description":"Only one assignment at a time (no double-booking or overlapping)",
 "entitytype":"Manufacturing Management",
 "fieldlength":1,
 "help":"If selected, you can only have one assignment for the resource at a single point in time.   It is also  not possible to have overlapping assignments.",
 "isactive":"Y",
 "name":"Single Assignment only",
 "po_description":null,
 "po_help":null,
 "po_name":null,
 "po_printname":null,
 "printname":"Single Assignment",
 "updated":"2000-01-02T00:00:00",
 "updatedby":0}, "children" : []},
 {"tablename" : "ad_element", "data" : {"ad_element_id":2318,
 "columnname":"Author",
 "ad_client_id":0,
 "ad_org_id":0,
 "ad_reference_id":10,
 "ad_reference_value_id":null,
 "created":"2004-01-01T23:37:18",
 "createdby":0,
 "description":"Author/Creator of the Entity",
 "entitytype":"Manufacturing Management",
 "fieldlength":20,
 "help":null,
 "isactive":"Y",
 "name":"Author",
 "po_description":null,
 "po_help":null,
 "po_name":null,
 "po_printname":null,
 "printname":"Author",
 "updated":"2000-01-02T00:00:00",
 "updatedby":0}, "children" : []},
 {"tablename" : "ad_element", "data" : {"ad_element_id":2320,
 "columnname":"Duration",
 "ad_client_id":0,
 "ad_org_id":0,
 "ad_reference_id":11,
 "ad_reference_value_id":null,
 "created":"2004-01-01T23:37:18",
 "createdby":0,
 "description":"Normal Duration in Duration Unit",
 "entitytype":"Manufacturing Management",
 "fieldlength":22,
 "help":"Expected (normal) Length of time for the execution",
 "isactive":"Y",
 "name":"Duration",
 "po_description":null,
 "po_help":null,
 "po_name":null,
 "po_printname":null,
 "printname":"Duration",
 "updated":"2000-01-02T00:00:00",
 "updatedby":0}, "children" : []},
 {"tablename" : "ad_element", "data" : {"ad_element_id":2321,
 "columnname":"DurationUnit",
 "ad_client_id":0,
 "ad_org_id":0,
 "ad_reference_id":17,
 "ad_reference_value_id":299,
 "created":"2004-01-01T23:37:18",
 "createdby":0,
 "description":"Unit of Duration",
 "entitytype":"Manufacturing Management",
 "fieldlength":1,
 "help":"Unit to define the length of time for the execution",
 "isactive":"Y",
 "name":"Duration Unit",
 "po_description":null,
 "po_help":null,
 "po_name":null,
 "po_printname":null,
 "printname":"Duration Unit",
 "updated":"2000-01-02T00:00:00",
 "updatedby":0}, "children" : []},
 {"tablename" : "ad_element", "data" : {"ad_element_id":2322,
 "columnname":"FinishMode",
 "ad_client_id":0,
 "ad_org_id":0,
 "ad_reference_id":17,
 "ad_reference_value_id":303,
 "created":"2004-01-01T23:37:18",
 "createdby":0,
 "description":"Workflow Activity Finish Mode",
 "entitytype":"Manufacturing Management",
 "fieldlength":1,
 "help":"How the system operated at the end of an activity. Automatic  implies return when the invoked applications finished control - Manual the user has to explicitly terminate the activity.",
 "isactive":"Y",
 "name":"Finish Mode",
 "po_description":null,
 "po_help":null,
 "po_name":null,
 "po_printname":null,
 "printname":"Finish Mode",
 "updated":"2000-01-02T00:00:00",
 "updatedby":0}, "children" : []},
 {"tablename" : "ad_element", "data" : {"ad_element_id":2323,
 "columnname":"DurationLimit",
 "ad_client_id":0,
 "ad_org_id":0,
 "ad_reference_id":11,
 "ad_reference_value_id":null,
 "created":"2004-01-01T23:37:18",
 "createdby":0,
 "description":"Maximum Duration in Duration Unit",
 "entitytype":"Manufacturing Management",
 "fieldlength":22,
 "help":"Maximum (critical) Duration for time management purposes (e.g. starting an escalation procedure, etc.) in Duration Units.",
 "isactive":"Y",
 "name":"Duration Limit",
 "po_description":null,
 "po_help":null,
 "po_name":null,
 "po_printname":null,
 "printname":"Duration Limit",
 "updated":"2020-09-28T23:58:19",
 "updatedby":100}, "children" : []},
 {"tablename" : "ad_element", "data" : {"ad_element_id":2327,
 "columnname":"StartMode",
 "ad_client_id":0,
 "ad_org_id":0,
 "ad_reference_id":17,
 "ad_reference_value_id":303,
 "created":"2004-01-01T23:37:18",
 "createdby":0,
 "description":"Workflow Activity Start Mode ",
 "entitytype":"Manufacturing Management",
 "fieldlength":1,
 "help":"How is the execution of an activity triggered. Automatic are triggered implicitly by the system, Manual explicitly by the User.",
 "isactive":"Y",
 "name":"Start Mode",
 "po_description":null,
 "po_help":null,
 "po_name":null,
 "po_printname":null,
 "printname":"Start Mode",
 "updated":"2000-01-02T00:00:00",
 "updatedby":0}, "children" : []},
 {"tablename" : "ad_element", "data" : {"ad_element_id":2328,
 "columnname":"SubflowExecution",
 "ad_client_id":0,
 "ad_org_id":0,
 "ad_reference_id":17,
 "ad_reference_value_id":307,
 "created":"2004-01-01T23:37:18",
 "createdby":0,
 "description":"Mode how the sub-workflow is executed",
 "entitytype":"Manufacturing Management",
 "fieldlength":1,
 "help":null,
 "isactive":"Y",
 "name":"Subflow Execution",
 "po_description":null,
 "po_help":null,
 "po_name":null,
 "po_printname":null,
 "printname":"Subflow Execution",
 "updated":"2000-01-02T00:00:00",
 "updatedby":0}, "children" : []},
 {"tablename" : "ad_element", "data" : {"ad_element_id":2329,
 "columnname":"TransitionCode",
 "ad_client_id":0,
 "ad_org_id":0,
 "ad_reference_id":14,
 "ad_reference_value_id":null,
 "created":"2004-01-01T23:37:18",
 "createdby":0,
 "description":"Code resulting in TRUE of FALSE",
 "entitytype":"Manufacturing Management",
 "fieldlength":2000,
 "help":"The transition is executed, if the code results in TRUE (or is empty)",
 "isactive":"Y",
 "name":"Transition Code",
 "po_description":null,
 "po_help":null,
 "po_name":null,
 "po_printname":null,
 "printname":"Transition Code",
 "updated":"2000-01-02T00:00:00",
 "updatedby":0}, "children" : []},
 {"tablename" : "ad_element", "data" : {"ad_element_id":2336,
 "columnname":"JoinElement",
 "ad_client_id":0,
 "ad_org_id":0,
 "ad_reference_id":17,
 "ad_reference_value_id":301,
 "created":"2004-01-04T13:02:04",
 "createdby":0,
 "description":"Semantics for multiple incoming Transitions",
 "entitytype":"Manufacturing Management",
 "fieldlength":1,
 "help":"Semantics for multiple incoming Transitions for a Node/Activity. AND joins all concurrent threads - XOR requires one thread (no synchronization).",
 "isactive":"Y",
 "name":"Join Element",
 "po_description":null,
 "po_help":null,
 "po_name":null,
 "po_printname":null,
 "printname":"Join Element",
 "updated":"2000-01-02T00:00:00",
 "updatedby":0}, "children" : []},
 {"tablename" : "ad_element", "data" : {"ad_element_id":2337,
 "columnname":"SplitElement",
 "ad_client_id":0,
 "ad_org_id":0,
 "ad_reference_id":17,
 "ad_reference_value_id":301,
 "created":"2004-01-04T13:02:04",
 "createdby":0,
 "description":"Semantics for multiple outgoing Transitions",
 "entitytype":"Manufacturing Management",
 "fieldlength":1,
 "help":"Semantics for multiple outgoing Transitions for a Node/Activity.  AND represents multiple concurrent threads - XOR represents the first transition with a true Transition condition.",
 "isactive":"Y",
 "name":"Split Element",
 "po_description":null,
 "po_help":null,
 "po_name":null,
 "po_printname":null,
 "printname":"Split Element",
 "updated":"2010-01-13T10:38:15",
 "updatedby":0}, "children" : []},
 {"tablename" : "ad_element", "data" : {"ad_element_id":2408,
 "columnname":"M_DistributionList_ID",
 "ad_client_id":0,
 "ad_org_id":0,
 "ad_reference_id":19,
 "ad_reference_value_id":null,
 "created":"2004-02-19T10:36:37",
 "createdby":0,
 "description":"Distribution Lists allow to distribute products to a selected list of partners",
 "entitytype":"Manufacturing Management",
 "fieldlength":22,
 "help":"Distribution list contain business partners and a distribution quantity or ratio for creating Orders",
 "isactive":"Y",
 "name":"Distribution List",
 "po_description":null,
 "po_help":null,
 "po_name":null,
 "po_printname":null,
 "printname":"Distribution List",
 "updated":"2000-01-02T00:00:00",
 "updatedby":0}, "children" : []},
 {"tablename" : "ad_element", "data" : {"ad_element_id":2409,
 "columnname":"M_DistributionListLine_ID",
 "ad_client_id":0,
 "ad_org_id":0,
 "ad_reference_id":13,
 "ad_reference_value_id":null,
 "created":"2004-02-19T10:36:37",
 "createdby":0,
 "description":"Distribution List Line with Business Partner and Quantity/Percentage",
 "entitytype":"Manufacturing Management",
 "fieldlength":22,
 "help":"The distribution can be based on Ratio, fixed quantity or both.\nIf the ratio and quantity is not 0, the quantity is calculated based on the ratio, but with the Quantity as a minimum.",
 "isactive":"Y",
 "name":"Distribution List Line",
 "po_description":null,
 "po_help":null,
 "po_name":null,
 "po_printname":null,
 "printname":"Distribution List Line",
 "updated":"2000-01-02T00:00:00",
 "updatedby":0}, "children" : []},
 {"tablename" : "ad_element", "data" : {"ad_element_id":2414,
 "columnname":"MinQty",
 "ad_client_id":0,
 "ad_org_id":0,
 "ad_reference_id":29,
 "ad_reference_value_id":null,
 "created":"2004-02-19T10:36:37",
 "createdby":0,
 "description":"Minimum quantity for the business partner",
 "entitytype":"Manufacturing Management",
 "fieldlength":22,
 "help":"If a minimum quantity is defined, and the quantity is based on the percentage is lower, the minimum quantity is used.",
 "isactive":"Y",
 "name":"Minimum Quantity",
 "po_description":null,
 "po_help":null,
 "po_name":null,
 "po_printname":null,
 "printname":"Min Qty",
 "updated":"2000-01-02T00:00:00",
 "updatedby":0}, "children" : []},
 {"tablename" : "ad_element", "data" : {"ad_element_id":2447,
 "columnname":"IsCreateSingleOrder",
 "ad_client_id":0,
 "ad_org_id":0,
 "ad_reference_id":20,
 "ad_reference_value_id":null,
 "created":"2004-03-10T22:13:45",
 "createdby":0,
 "description":"For all shipments create one Order",
 "entitytype":"Manufacturing Management",
 "fieldlength":1,
 "help":null,
 "isactive":"Y",
 "name":"Create Single Order",
 "po_description":null,
 "po_help":null,
 "po_name":null,
 "po_printname":null,
 "printname":"Create Single Order",
 "updated":"2000-01-02T00:00:00",
 "updatedby":0}, "children" : []},
 {"tablename" : "ad_element", "data" : {"ad_element_id":2463,
 "columnname":"ValidateWorkflow",
 "ad_client_id":0,
 "ad_org_id":0,
 "ad_reference_id":28,
 "ad_reference_value_id":null,
 "created":"2004-03-17T18:18:32",
 "createdby":0,
 "description":null,
 "entitytype":"Manufacturing Management",
 "fieldlength":1,
 "help":null,
 "isactive":"Y",
 "name":"Validate Workflow",
 "po_description":null,
 "po_help":null,
 "po_name":null,
 "po_printname":null,
 "printname":"Validateworkflow",
 "updated":"2000-01-02T00:00:00",
 "updatedby":0}, "children" : []},
 {"tablename" : "ad_element", "data" : {"ad_element_id":2464,
 "columnname":"WaitTime",
 "ad_client_id":0,
 "ad_org_id":0,
 "ad_reference_id":11,
 "ad_reference_value_id":null,
 "created":"2004-03-17T18:18:32",
 "createdby":0,
 "description":"Time in minutes to wait (sleep)",
 "entitytype":"Manufacturing Management",
 "fieldlength":22,
 "help":"Time in minutes to be suspended (sleep)",
 "isactive":"Y",
 "name":"Wait Time",
 "po_description":null,
 "po_help":null,
 "po_name":null,
 "po_printname":null,
 "printname":"Wait Time",
 "updated":"2000-01-02T00:00:00",
 "updatedby":0}, "children" : []},
 {"tablename" : "ad_element", "data" : {"ad_element_id":2471,
 "columnname":"Ratio",
 "ad_client_id":0,
 "ad_org_id":0,
 "ad_reference_id":22,
 "ad_reference_value_id":null,
 "created":"2004-03-19T12:38:53",
 "createdby":0,
 "description":"Relative Ratio for Distributions",
 "entitytype":"Manufacturing Management",
 "fieldlength":22,
 "help":"The relative weight of an distribution. If the total of all ratios is 100, it is the same as percent.",
 "isactive":"Y",
 "name":"Ratio",
 "po_description":null,
 "po_help":null,
 "po_name":null,
 "po_printname":null,
 "printname":"Ratio",
 "updated":"2000-01-02T00:00:00",
 "updatedby":0}, "children" : []},
 {"tablename" : "ad_element", "data" : {"ad_element_id":2472,
 "columnname":"RatioTotal",
 "ad_client_id":0,
 "ad_org_id":0,
 "ad_reference_id":22,
 "ad_reference_value_id":null,
 "created":"2004-03-19T12:38:54",
 "createdby":0,
 "description":"Total of relative weight in a distribution",
 "entitytype":"Manufacturing Management",
 "fieldlength":22,
 "help":"The total relative weight of an distribution. If the total of all ratios is 100, it is the same as percent.",
 "isactive":"Y",
 "name":"Total Ratio",
 "po_description":null,
 "po_help":null,
 "po_name":null,
 "po_printname":null,
 "printname":"Total Ratio",
 "updated":"2000-01-02T00:00:00",
 "updatedby":0}, "children" : []},
 {"tablename" : "ad_element", "data" : {"ad_element_id":2485,
 "columnname":"M_DistributionRun_ID",
 "ad_client_id":0,
 "ad_org_id":0,
 "ad_reference_id":13,
 "ad_reference_value_id":null,
 "created":"2004-04-01T17:21:55",
 "createdby":0,
 "description":"Distribution Run create Orders to distribute products to a selected list of partners",
 "entitytype":"Manufacturing Management",
 "fieldlength":22,
 "help":"Distribution Run defines how Orders are created based on Distribution Lists",
 "isactive":"Y",
 "name":"Distribution Run",
 "po_description":null,
 "po_help":null,
 "po_name":null,
 "po_printname":null,
 "printname":"Distribution Run",
 "updated":"2000-01-02T00:00:00",
 "updatedby":0}, "children" : []},
 {"tablename" : "ad_element", "data" : {"ad_element_id":2486,
 "columnname":"M_DistributionRunLine_ID",
 "ad_client_id":0,
 "ad_org_id":0,
 "ad_reference_id":13,
 "ad_reference_value_id":null,
 "created":"2004-04-01T17:21:55",
 "createdby":0,
 "description":"Distribution Run Lines define Distribution List, the Product and Quantities",
 "entitytype":"Manufacturing Management",
 "fieldlength":22,
 "help":"The order amount is based on the greater of the minimums of the product or distribution list and the quantity based on the ratio.",
 "isactive":"Y",
 "name":"Distribution Run Line",
 "po_description":null,
 "po_help":null,
 "po_name":null,
 "po_printname":null,
 "printname":"Distribution Run Line",
 "updated":"2010-01-13T10:38:15",
 "updatedby":0}, "children" : []},
 {"tablename" : "ad_element", "data" : {"ad_element_id":2501,
 "columnname":"IsStdUserWorkflow",
 "ad_client_id":0,
 "ad_org_id":0,
 "ad_reference_id":20,
 "ad_reference_value_id":null,
 "created":"2004-04-20T00:02:09",
 "createdby":0,
 "description":"Standard Manual User Approval Workflow",
 "entitytype":"Manufacturing Management",
 "fieldlength":1,
 "help":"If selected, only documents with an open status (drafted, in progress, approved, rejected, invalid) and standard user actions (prepare, complete, approve, reject) are allowed to continue.  Use this to prevent having to define details on how automatic processes (unlock, invalidate, post, re-activate) and when the document is closed for normal user action (completed, waiting, closed, voided, reversed).",
 "isactive":"Y",
 "name":"Std User Workflow",
 "po_description":null,
 "po_help":null,
 "po_name":null,
 "po_printname":null,
 "printname":"Std User Workflow",
 "updated":"2000-01-02T00:00:00",
 "updatedby":0}, "children" : []},
 {"tablename" : "ad_element", "data" : {"ad_element_id":2552,
 "columnname":"M_MovementConfirm_ID",
 "ad_client_id":0,
 "ad_org_id":0,
 "ad_reference_id":19,
 "ad_reference_value_id":null,
 "created":"2004-06-17T11:25:13",
 "createdby":0,
 "description":"Inventory Move Confirmation",
 "entitytype":"Manufacturing Management",
 "fieldlength":22,
 "help":"The document is automatically created when the document type of the movement indicates In Transit.",
 "isactive":"Y",
 "name":"Move Confirm",
 "po_description":null,
 "po_help":null,
 "po_name":null,
 "po_printname":null,
 "printname":"Move Confirm",
 "updated":"2000-01-02T00:00:00",
 "updatedby":0}, "children" : []},
 {"tablename" : "ad_element", "data" : {"ad_element_id":2553,
 "columnname":"M_MovementLineConfirm_ID",
 "ad_client_id":0,
 "ad_org_id":0,
 "ad_reference_id":13,
 "ad_reference_value_id":null,
 "created":"2004-06-17T11:25:13",
 "createdby":0,
 "description":"Inventory Move Line Confirmation",
 "entitytype":"Manufacturing Management",
 "fieldlength":22,
 "help":null,
 "isactive":"Y",
 "name":"Move Line Confirm",
 "po_description":null,
 "po_help":null,
 "po_name":null,
 "po_printname":null,
 "printname":"Move Line Confirm",
 "updated":"2000-01-02T00:00:00",
 "updatedby":0}, "children" : []},
 {"tablename" : "ad_element", "data" : {"ad_element_id":2624,
 "columnname":"DocValueLogic",
 "ad_client_id":0,
 "ad_org_id":0,
 "ad_reference_id":10,
 "ad_reference_value_id":null,
 "created":"2004-08-18T19:35:11",
 "createdby":0,
 "description":"Logic to determine Workflow Start - If true, a workflow process is started for the document",
 "entitytype":"Manufacturing Management",
 "fieldlength":2000,
 "help":"You can enter simple logic using variables like @Created@=@Updated@, which fires, when a record is created. If you need to evaluate also values of other records, you need to use SQL logic and need to prefix this logic with \"SQL=\". Example: start a Order verify workflow, when a business partner ordered something and is over the credit limit  \"SQL=EXISTS (SELECT * FROM C_BPartner bp WHERE C_Order. C_BPartner_ID=bp. C_BPartner_ID AND SO_CreditUsed > SO_CreditLimit)\".\nNote that the SQL based logic checks for duplicate workflows (i.e. a workflow is started only once per record).",
 "isactive":"Y",
 "name":"Document Value Logic",
 "po_description":null,
 "po_help":null,
 "po_name":null,
 "po_printname":null,
 "printname":"Doc Value Logic",
 "updated":"2005-09-26T18:38:52",
 "updatedby":100}, "children" : []},
 {"tablename" : "ad_element", "data" : {"ad_element_id":2626,
 "columnname":"WorkflowType",
 "ad_client_id":0,
 "ad_org_id":0,
 "ad_reference_id":17,
 "ad_reference_value_id":328,
 "created":"2004-08-18T19:35:11",
 "createdby":0,
 "description":"Type of Workflow",
 "entitytype":"Manufacturing Management",
 "fieldlength":1,
 "help":"The type of workflow determines how the workflow is started.",
 "isactive":"Y",
 "name":"Workflow Type",
 "po_description":null,
 "po_help":null,
 "po_name":null,
 "po_printname":null,
 "printname":"Workflow Type",
 "updated":"2010-01-13T10:38:15",
 "updatedby":0}, "children" : []},
 {"tablename" : "ad_element", "data" : {"ad_element_id":2636,
 "columnname":"DynPriorityChange",
 "ad_client_id":0,
 "ad_org_id":0,
 "ad_reference_id":22,
 "ad_reference_value_id":null,
 "created":"2004-09-01T23:37:00",
 "createdby":0,
 "description":"Change of priority when Activity is suspended waiting for user",
 "entitytype":"Manufacturing Management",
 "fieldlength":22,
 "help":"Starting with the Process / Node priority level, the priority of the suspended activity can be changed dynamically. Example +5 every 10 minutes",
 "isactive":"Y",
 "name":"Dynamic Priority Change",
 "po_description":null,
 "po_help":null,
 "po_name":null,
 "po_printname":null,
 "printname":"Dyn Priority Change",
 "updated":"2000-01-02T00:00:00",
 "updatedby":0}, "children" : []},
 {"tablename" : "ad_element", "data" : {"ad_element_id":2638,
 "columnname":"DynPriorityUnit",
 "ad_client_id":0,
 "ad_org_id":0,
 "ad_reference_id":17,
 "ad_reference_value_id":221,
 "created":"2004-09-01T23:37:00",
 "createdby":0,
 "description":"Change of priority when Activity is suspended waiting for user",
 "entitytype":"Manufacturing Management",
 "fieldlength":1,
 "help":"Starting with the Process / Node priority level, the priority of the suspended activity can be changed dynamically. Example +5 every 10 minutes",
 "isactive":"Y",
 "name":"Dynamic Priority Unit",
 "po_description":null,
 "po_help":null,
 "po_name":null,
 "po_printname":null,
 "printname":"Dyn Priority Unit",
 "updated":"2000-01-02T00:00:00",
 "updatedby":0}, "children" : []},
 {"tablename" : "ad_element", "data" : {"ad_element_id":2879,
 "columnname":"EMailRecipient",
 "ad_client_id":0,
 "ad_org_id":0,
 "ad_reference_id":17,
 "ad_reference_value_id":363,
 "created":"2005-11-11T19:09:16",
 "createdby":100,
 "description":"Recipient of the EMail",
 "entitytype":"Manufacturing Management",
 "fieldlength":1,
 "help":null,
 "isactive":"Y",
 "name":"EMail Recipient",
 "po_description":null,
 "po_help":null,
 "po_name":null,
 "po_printname":null,
 "printname":"EMail Recipient",
 "updated":"2005-11-11T19:10:07",
 "updatedby":100}, "children" : []},
 {"tablename" : "ad_element", "data" : {"ad_element_id":53237,
 "columnname":"IsMilestone",
 "ad_client_id":0,
 "ad_org_id":0,
 "ad_reference_id":20,
 "ad_reference_value_id":null,
 "created":"2007-12-17T02:49:34",
 "createdby":0,
 "description":null,
 "entitytype":"Manufacturing Management",
 "fieldlength":1,
 "help":null,
 "isactive":"Y",
 "name":"Is Milestone",
 "po_description":null,
 "po_help":null,
 "po_name":null,
 "po_printname":null,
 "printname":"Is Milestone",
 "updated":"2008-08-05T12:16:14",
 "updatedby":0}, "children" : []},
 {"tablename" : "ad_element", "data" : {"ad_element_id":53238,
 "columnname":"IsSubcontracting",
 "ad_client_id":0,
 "ad_org_id":0,
 "ad_reference_id":20,
 "ad_reference_value_id":null,
 "created":"2007-12-17T02:49:36",
 "createdby":0,
 "description":null,
 "entitytype":"Manufacturing Management",
 "fieldlength":1,
 "help":null,
 "isactive":"Y",
 "name":"Is Subcontracting",
 "po_description":null,
 "po_help":null,
 "po_name":null,
 "po_printname":null,
 "printname":"Is Subcontracting",
 "updated":"2008-08-05T12:16:22",
 "updatedby":0}, "children" : []},
 {"tablename" : "ad_element", "data" : {"ad_element_id":53239,
 "columnname":"UnitsCycles",
 "ad_client_id":0,
 "ad_org_id":0,
 "ad_reference_id":22,
 "ad_reference_value_id":null,
 "created":"2007-12-17T02:49:40",
 "createdby":0,
 "description":"The Units by Cycles are defined for process type  Flow Repetitive Dedicated and  indicated the product to be manufactured on a production line for duration unit.",
 "entitytype":"Manufacturing Management",
 "fieldlength":14,
 "help":"When Units by Cycles are defined the duration time is the total of time to manufactured the units",
 "isactive":"Y",
 "name":"Units by Cycles",
 "po_description":null,
 "po_help":null,
 "po_name":null,
 "po_printname":null,
 "printname":"Units by Cycles",
 "updated":"2009-02-06T00:32:48",
 "updatedby":0}, "children" : []},
 {"tablename" : "ad_element", "data" : {"ad_element_id":53240,
 "columnname":"MovingTime",
 "ad_client_id":0,
 "ad_org_id":0,
 "ad_reference_id":11,
 "ad_reference_value_id":null,
 "created":"2007-12-17T02:51:25",
 "createdby":0,
 "description":null,
 "entitytype":"Manufacturing Management",
 "fieldlength":22,
 "help":null,
 "isactive":"Y",
 "name":"Moving Time",
 "po_description":null,
 "po_help":null,
 "po_name":null,
 "po_printname":null,
 "printname":"Moving Time",
 "updated":"2008-08-05T12:16:47",
 "updatedby":0}, "children" : []},
 {"tablename" : "ad_element", "data" : {"ad_element_id":53241,
 "columnname":"OverlapUnits",
 "ad_client_id":0,
 "ad_org_id":0,
 "ad_reference_id":11,
 "ad_reference_value_id":null,
 "created":"2007-12-17T02:54:29",
 "createdby":0,
 "description":"Overlap Units are number of units that must be completed before they are moved the next activity",
 "entitytype":"Manufacturing Management",
 "fieldlength":22,
 "help":"When there are two consecutive avtivity, you can sometimes save time by moving partial quantites from one activity to the next before the first activity as been completed.",
 "isactive":"Y",
 "name":"Overlap Units",
 "po_description":null,
 "po_help":null,
 "po_name":null,
 "po_printname":null,
 "printname":"Overlap Units",
 "updated":"2009-02-06T00:36:09",
 "updatedby":0}, "children" : []},
 {"tablename" : "ad_element", "data" : {"ad_element_id":53242,
 "columnname":"ProcessType",
 "ad_client_id":0,
 "ad_org_id":0,
 "ad_reference_id":17,
 "ad_reference_value_id":53224,
 "created":"2007-12-17T03:22:22",
 "createdby":0,
 "description":null,
 "entitytype":"Manufacturing Management",
 "fieldlength":2,
 "help":null,
 "isactive":"Y",
 "name":"Process Type",
 "po_description":null,
 "po_help":null,
 "po_name":null,
 "po_printname":null,
 "printname":"Process Type",
 "updated":"2008-08-05T12:10:49",
 "updatedby":0}, "children" : []},
 {"tablename" : "ad_element", "data" : {"ad_element_id":53262,
 "columnname":"IsRequiredMRP",
 "ad_client_id":0,
 "ad_org_id":0,
 "ad_reference_id":20,
 "ad_reference_value_id":null,
 "created":"2007-12-17T03:28:48",
 "createdby":0,
 "description":null,
 "entitytype":"Manufacturing Management",
 "fieldlength":1,
 "help":null,
 "isactive":"Y",
 "name":"Required Calculate MRP",
 "po_description":null,
 "po_help":null,
 "po_name":null,
 "po_printname":null,
 "printname":"Required Calculate MRP",
 "updated":"2008-05-19T01:06:04",
 "updatedby":0}, "children" : []},
 {"tablename" : "ad_element", "data" : {"ad_element_id":53277,
 "columnname":"DateConfirm",
 "ad_client_id":0,
 "ad_org_id":0,
 "ad_reference_id":16,
 "ad_reference_value_id":null,
 "created":"2007-12-17T04:55:13",
 "createdby":0,
 "description":"Date Confirm of this Order",
 "entitytype":"Manufacturing Management",
 "fieldlength":29,
 "help":null,
 "isactive":"Y",
 "name":"Date Confirm",
 "po_description":null,
 "po_help":null,
 "po_name":null,
 "po_printname":null,
 "printname":"Date Confirm",
 "updated":"2010-03-29T16:35:30",
 "updatedby":100}, "children" : []},
 {"tablename" : "ad_element", "data" : {"ad_element_id":53278,
 "columnname":"DateFinishSchedule",
 "ad_client_id":0,
 "ad_org_id":0,
 "ad_reference_id":16,
 "ad_reference_value_id":null,
 "created":"2007-12-17T04:55:15",
 "createdby":0,
 "description":"Scheduled Finish date for this Order",
 "entitytype":"Manufacturing Management",
 "fieldlength":29,
 "help":null,
 "isactive":"Y",
 "name":"Date Finish Schedule",
 "po_description":null,
 "po_help":null,
 "po_name":null,
 "po_printname":null,
 "printname":"Date Finish Schedule",
 "updated":"2010-01-08T19:57:25",
 "updatedby":0}, "children" : []},
 {"tablename" : "ad_element", "data" : {"ad_element_id":53279,
 "columnname":"DateSimulation",
 "ad_client_id":0,
 "ad_org_id":0,
 "ad_reference_id":16,
 "ad_reference_value_id":null,
 "created":"2007-12-17T04:55:19",
 "createdby":0,
 "description":"Simulation date for this Material Plan",
 "entitytype":"Manufacturing Management",
 "fieldlength":29,
 "help":null,
 "isactive":"Y",
 "name":"Date Simulation",
 "po_description":null,
 "po_help":null,
 "po_name":null,
 "po_printname":null,
 "printname":"Date Simulation",
 "updated":"2010-01-08T19:53:38",
 "updatedby":0}, "children" : []},
 {"tablename" : "ad_element", "data" : {"ad_element_id":53281,
 "columnname":"DateStartSchedule",
 "ad_client_id":0,
 "ad_org_id":0,
 "ad_reference_id":16,
 "ad_reference_value_id":null,
 "created":"2007-12-17T04:55:23",
 "createdby":0,
 "description":"Scheduled start date for this Order",
 "entitytype":"Manufacturing Management",
 "fieldlength":29,
 "help":null,
 "isactive":"Y",
 "name":"Date Start Schedule",
 "po_description":null,
 "po_help":null,
 "po_name":null,
 "po_printname":null,
 "printname":"Date Start Schedule",
 "updated":"2010-01-08T19:51:30",
 "updatedby":0}, "children" : []},
 {"tablename" : "ad_element", "data" : {"ad_element_id":53282,
 "columnname":"TypeMRP",
 "ad_client_id":0,
 "ad_org_id":0,
 "ad_reference_id":17,
 "ad_reference_value_id":53230,
 "created":"2007-12-17T04:55:39",
 "createdby":0,
 "description":"MRP Type determines whether a record is demand or supply",
 "entitytype":"Manufacturing Management",
 "fieldlength":1,
 "help":null,
 "isactive":"Y",
 "name":"MRP Type",
 "po_description":null,
 "po_help":null,
 "po_name":null,
 "po_printname":null,
 "printname":"MRP Type",
 "updated":"2010-01-08T19:38:27",
 "updatedby":0}, "children" : []},
 {"tablename" : "ad_element", "data" : {"ad_element_id":53283,
 "columnname":"DurationReal",
 "ad_client_id":0,
 "ad_org_id":0,
 "ad_reference_id":11,
 "ad_reference_value_id":null,
 "created":"2007-12-17T05:00:06",
 "createdby":0,
 "description":null,
 "entitytype":"Manufacturing Management",
 "fieldlength":22,
 "help":null,
 "isactive":"Y",
 "name":"Duration Real",
 "po_description":null,
 "po_help":null,
 "po_name":null,
 "po_printname":null,
 "printname":"Duration Real",
 "updated":"2008-08-05T12:15:29",
 "updatedby":0}, "children" : []},
 {"tablename" : "ad_element", "data" : {"ad_element_id":53284,
 "columnname":"DurationRequiered",
 "ad_client_id":0,
 "ad_org_id":0,
 "ad_reference_id":11,
 "ad_reference_value_id":null,
 "created":"2007-12-17T05:00:08",
 "createdby":0,
 "description":null,
 "entitytype":"Manufacturing Management",
 "fieldlength":22,
 "help":null,
 "isactive":"Y",
 "name":"Duration Requiered",
 "po_description":null,
 "po_help":null,
 "po_name":null,
 "po_printname":null,
 "printname":"Duration Requiered",
 "updated":"2008-08-05T12:15:36",
 "updatedby":0}, "children" : []},
 {"tablename" : "ad_element", "data" : {"ad_element_id":53287,
 "columnname":"QtyReject",
 "ad_client_id":0,
 "ad_org_id":0,
 "ad_reference_id":29,
 "ad_reference_value_id":null,
 "created":"2007-12-17T05:00:40",
 "createdby":0,
 "description":null,
 "entitytype":"Manufacturing Management",
 "fieldlength":22,
 "help":null,
 "isactive":"Y",
 "name":"Qty Reject",
 "po_description":null,
 "po_help":null,
 "po_name":null,
 "po_printname":null,
 "printname":"Qty Reject",
 "updated":"2008-08-05T12:12:17",
 "updatedby":0}, "children" : []},
 {"tablename" : "ad_element", "data" : {"ad_element_id":53289,
 "columnname":"QtyScrap",
 "ad_client_id":0,
 "ad_org_id":0,
 "ad_reference_id":29,
 "ad_reference_value_id":null,
 "created":"2007-12-17T05:00:44",
 "createdby":0,
 "description":"Scrap % Quantity for this componet",
 "entitytype":"Manufacturing Management",
 "fieldlength":22,
 "help":"Scrap % Quantity for this componet",
 "isactive":"Y",
 "name":"Scrap %",
 "po_description":null,
 "po_help":null,
 "po_name":null,
 "po_printname":null,
 "printname":"Scrap %",
 "updated":"2010-01-08T20:01:31",
 "updatedby":0}, "children" : []},
 {"tablename" : "ad_element", "data" : {"ad_element_id":53290,
 "columnname":"SetupTimeReal",
 "ad_client_id":0,
 "ad_org_id":0,
 "ad_reference_id":11,
 "ad_reference_value_id":null,
 "created":"2007-12-17T05:00:51",
 "createdby":0,
 "description":null,
 "entitytype":"Manufacturing Management",
 "fieldlength":22,
 "help":null,
 "isactive":"Y",
 "name":"Setup Time Real",
 "po_description":null,
 "po_help":null,
 "po_name":null,
 "po_printname":null,
 "printname":"Setup Time Real",
 "updated":"2008-08-05T12:17:19",
 "updatedby":0}, "children" : []},
 {"tablename" : "ad_element", "data" : {"ad_element_id":53291,
 "columnname":"SetupTimeRequiered",
 "ad_client_id":0,
 "ad_org_id":0,
 "ad_reference_id":11,
 "ad_reference_value_id":null,
 "created":"2007-12-17T05:00:53",
 "createdby":0,
 "description":null,
 "entitytype":"Manufacturing Management",
 "fieldlength":22,
 "help":null,
 "isactive":"Y",
 "name":"Setup Time Requiered",
 "po_description":null,
 "po_help":null,
 "po_name":null,
 "po_printname":null,
 "printname":"Setup Time Requiered",
 "updated":"2008-08-05T12:17:32",
 "updatedby":0}, "children" : []},
 {"tablename" : "ad_element", "data" : {"ad_element_id":53294,
 "columnname":"CumulatedAmtPost",
 "ad_client_id":0,
 "ad_org_id":0,
 "ad_reference_id":29,
 "ad_reference_value_id":null,
 "created":"2007-12-17T05:05:03",
 "createdby":0,
 "description":null,
 "entitytype":"Manufacturing Management",
 "fieldlength":22,
 "help":null,
 "isactive":"Y",
 "name":"Cumulated Amt Post",
 "po_description":null,
 "po_help":null,
 "po_name":null,
 "po_printname":null,
 "printname":"Cumulated Amt Post",
 "updated":"2008-08-05T12:15:13",
 "updatedby":0}, "children" : []},
 {"tablename" : "ad_element", "data" : {"ad_element_id":53295,
 "columnname":"CumulatedQtyPost",
 "ad_client_id":0,
 "ad_org_id":0,
 "ad_reference_id":29,
 "ad_reference_value_id":null,
 "created":"2007-12-17T05:05:07",
 "createdby":0,
 "description":null,
 "entitytype":"Manufacturing Management",
 "fieldlength":14,
 "help":null,
 "isactive":"Y",
 "name":"Cumulated Qty Post",
 "po_description":null,
 "po_help":null,
 "po_name":null,
 "po_printname":null,
 "printname":"Cumulated Qty Post",
 "updated":"2008-08-05T12:15:21",
 "updatedby":0}, "children" : []},
 {"tablename" : "ad_element", "data" : {"ad_element_id":53299,
 "columnname":"QtyPost",
 "ad_client_id":0,
 "ad_org_id":0,
 "ad_reference_id":29,
 "ad_reference_value_id":null,
 "created":"2007-12-17T05:07:26",
 "createdby":0,
 "description":null,
 "entitytype":"Manufacturing Management",
 "fieldlength":22,
 "help":null,
 "isactive":"Y",
 "name":"Qty Post",
 "po_description":null,
 "po_help":null,
 "po_name":null,
 "po_printname":null,
 "printname":"Qty Post",
 "updated":"2008-08-05T12:12:13",
 "updatedby":0}, "children" : []},
 {"tablename" : "ad_element", "data" : {"ad_element_id":53300,
 "columnname":"FloatAfter",
 "ad_client_id":0,
 "ad_org_id":0,
 "ad_reference_id":29,
 "ad_reference_value_id":null,
 "created":"2007-12-17T05:11:45",
 "createdby":0,
 "description":null,
 "entitytype":"Manufacturing Management",
 "fieldlength":22,
 "help":null,
 "isactive":"Y",
 "name":"Float After",
 "po_description":null,
 "po_help":null,
 "po_name":null,
 "po_printname":null,
 "printname":"Float After",
 "updated":"2008-08-05T12:15:42",
 "updatedby":0}, "children" : []},
 {"tablename" : "ad_element", "data" : {"ad_element_id":53301,
 "columnname":"FloatBefored",
 "ad_client_id":0,
 "ad_org_id":0,
 "ad_reference_id":29,
 "ad_reference_value_id":null,
 "created":"2007-12-17T05:11:48",
 "createdby":0,
 "description":null,
 "entitytype":"Manufacturing Management",
 "fieldlength":22,
 "help":null,
 "isactive":"Y",
 "name":"Float Befored",
 "po_description":null,
 "po_help":null,
 "po_name":null,
 "po_printname":null,
 "printname":"Float Befored",
 "updated":"2008-08-05T12:15:51",
 "updatedby":0}, "children" : []},
 {"tablename" : "ad_element", "data" : {"ad_element_id":53302,
 "columnname":"QtyBatchs",
 "ad_client_id":0,
 "ad_org_id":0,
 "ad_reference_id":29,
 "ad_reference_value_id":null,
 "created":"2007-12-17T05:12:42",
 "createdby":0,
 "description":null,
 "entitytype":"Manufacturing Management",
 "fieldlength":22,
 "help":null,
 "isactive":"Y",
 "name":"Qty Batchs",
 "po_description":null,
 "po_help":null,
 "po_name":null,
 "po_printname":null,
 "printname":"Qty Batchs",
 "updated":"2008-08-05T12:11:25",
 "updatedby":0}, "children" : []},
 {"tablename" : "ad_element", "data" : {"ad_element_id":53305,
 "columnname":"QtyDeliveredLine",
 "ad_client_id":0,
 "ad_org_id":0,
 "ad_reference_id":29,
 "ad_reference_value_id":null,
 "created":"2007-12-17T06:15:36",
 "createdby":0,
 "description":null,
 "entitytype":"Manufacturing Management",
 "fieldlength":22,
 "help":null,
 "isactive":"Y",
 "name":"Qty Delivered Line",
 "po_description":null,
 "po_help":null,
 "po_name":null,
 "po_printname":null,
 "printname":"Qty Delivered Line",
 "updated":"2008-08-05T12:11:31",
 "updatedby":0}, "children" : []},
 {"tablename" : "ad_element", "data" : {"ad_element_id":53306,
 "columnname":"QtyIssueScrapShouldBe",
 "ad_client_id":0,
 "ad_org_id":0,
 "ad_reference_id":29,
 "ad_reference_value_id":null,
 "created":"2007-12-17T06:15:39",
 "createdby":0,
 "description":null,
 "entitytype":"Manufacturing Management",
 "fieldlength":22,
 "help":null,
 "isactive":"Y",
 "name":"Qty Issue Scrap Should Be",
 "po_description":null,
 "po_help":null,
 "po_name":null,
 "po_printname":null,
 "printname":"Qty Issue Scrap Should Be",
 "updated":"2008-08-05T12:11:56",
 "updatedby":0}, "children" : []},
 {"tablename" : "ad_element", "data" : {"ad_element_id":53307,
 "columnname":"QtyIssueShouldBe",
 "ad_client_id":0,
 "ad_org_id":0,
 "ad_reference_id":29,
 "ad_reference_value_id":null,
 "created":"2007-12-17T06:15:41",
 "createdby":0,
 "description":null,
 "entitytype":"Manufacturing Management",
 "fieldlength":22,
 "help":null,
 "isactive":"Y",
 "name":"Qty Issue Should Be",
 "po_description":null,
 "po_help":null,
 "po_name":null,
 "po_printname":null,
 "printname":"Qty Issue Should Be",
 "updated":"2008-08-05T12:12:09",
 "updatedby":0}, "children" : []},
 {"tablename" : "ad_element", "data" : {"ad_element_id":53308,
 "columnname":"QtyScrapLine",
 "ad_client_id":0,
 "ad_org_id":0,
 "ad_reference_id":29,
 "ad_reference_value_id":null,
 "created":"2007-12-17T06:15:45",
 "createdby":0,
 "description":null,
 "entitytype":"Manufacturing Management",
 "fieldlength":22,
 "help":null,
 "isactive":"Y",
 "name":"Qty Scrap Line",
 "po_description":null,
 "po_help":null,
 "po_name":null,
 "po_printname":null,
 "printname":"Qty Scrap Line",
 "updated":"2008-08-05T12:12:40",
 "updatedby":0}, "children" : []},
 {"tablename" : "ad_element", "data" : {"ad_element_id":53309,
 "columnname":"IsBatchTime",
 "ad_client_id":0,
 "ad_org_id":0,
 "ad_reference_id":20,
 "ad_reference_value_id":null,
 "created":"2007-12-17T06:33:44",
 "createdby":0,
 "description":null,
 "entitytype":"Manufacturing Management",
 "fieldlength":1,
 "help":null,
 "isactive":"Y",
 "name":"Is BatchTime",
 "po_description":null,
 "po_help":null,
 "po_name":null,
 "po_printname":null,
 "printname":"Is BatchTime",
 "updated":"2008-08-05T12:15:58",
 "updatedby":0}, "children" : []},
 {"tablename" : "ad_element", "data" : {"ad_element_id":53312,
 "columnname":"QtyInTransit",
 "ad_client_id":0,
 "ad_org_id":0,
 "ad_reference_id":29,
 "ad_reference_value_id":null,
 "created":"2007-12-17T07:20:13",
 "createdby":0,
 "description":null,
 "entitytype":"Manufacturing Management",
 "fieldlength":22,
 "help":null,
 "isactive":"Y",
 "name":"Qty In Transit",
 "po_description":null,
 "po_help":null,
 "po_name":null,
 "po_printname":null,
 "printname":"Qty In Transit",
 "updated":"2008-08-05T12:11:41",
 "updatedby":0}, "children" : []},
 {"tablename" : "ad_element", "data" : {"ad_element_id":53314,
 "columnname":"QM_Specification_ID",
 "ad_client_id":0,
 "ad_org_id":0,
 "ad_reference_id":13,
 "ad_reference_value_id":null,
 "created":"2007-12-17T08:40:37",
 "createdby":0,
 "description":null,
 "entitytype":"Manufacturing Management",
 "fieldlength":22,
 "help":null,
 "isactive":"Y",
 "name":"Quality Specification",
 "po_description":null,
 "po_help":null,
 "po_name":null,
 "po_printname":null,
 "printname":"Quality Specification",
 "updated":"2008-08-05T12:11:05",
 "updatedby":0}, "children" : []},
 {"tablename" : "ad_element", "data" : {"ad_element_id":53315,
 "columnname":"QM_SpecificationLine_ID",
 "ad_client_id":0,
 "ad_org_id":0,
 "ad_reference_id":13,
 "ad_reference_value_id":null,
 "created":"2007-12-17T08:41:24",
 "createdby":0,
 "description":null,
 "entitytype":"Manufacturing Management",
 "fieldlength":22,
 "help":null,
 "isactive":"Y",
 "name":"QM Specification Line",
 "po_description":null,
 "po_help":null,
 "po_name":null,
 "po_printname":null,
 "printname":"QM Specification Line",
 "updated":"2010-03-29T16:40:17",
 "updatedby":100}, "children" : []},
 {"tablename" : "ad_element", "data" : {"ad_element_id":53465,
 "columnname":"TM_Product_ID",
 "ad_client_id":0,
 "ad_org_id":0,
 "ad_reference_id":30,
 "ad_reference_value_id":162,
 "created":"2008-05-12T13:42:51",
 "createdby":100,
 "description":null,
 "entitytype":"Manufacturing Management",
 "fieldlength":22,
 "help":null,
 "isactive":"Y",
 "name":"Product",
 "po_description":null,
 "po_help":null,
 "po_name":null,
 "po_printname":null,
 "printname":"Product",
 "updated":"2008-08-05T12:14:34",
 "updatedby":0}, "children" : []},
 {"tablename" : "ad_element", "data" : {"ad_element_id":53466,
 "columnname":"Implosion",
 "ad_client_id":0,
 "ad_org_id":0,
 "ad_reference_id":20,
 "ad_reference_value_id":null,
 "created":"2008-05-12T14:01:03",
 "createdby":100,
 "description":"Implosion of a Bill of Materials refers to finding all the BOM''s in which a component is used.",
 "entitytype":"Manufacturing Management",
 "fieldlength":1,
 "help":"Commonly called a Where-Used report.",
 "isactive":"Y",
 "name":"Implosion",
 "po_description":null,
 "po_help":null,
 "po_name":null,
 "po_printname":null,
 "printname":"Implosion",
 "updated":"2008-05-31T16:10:49",
 "updatedby":0}, "children" : []},
 {"tablename" : "ad_element", "data" : {"ad_element_id":53470,
 "columnname":"IsRequiredDRP",
 "ad_client_id":0,
 "ad_org_id":0,
 "ad_reference_id":20,
 "ad_reference_value_id":null,
 "created":"2008-05-19T01:00:42",
 "createdby":0,
 "description":null,
 "entitytype":"Manufacturing Management",
 "fieldlength":1,
 "help":null,
 "isactive":"Y",
 "name":"Required Calculate DRP",
 "po_description":null,
 "po_help":null,
 "po_name":null,
 "po_printname":null,
 "printname":"Required Calculate DRP",
 "updated":"2008-05-19T01:05:46",
 "updatedby":0}, "children" : []},
 {"tablename" : "ad_element", "data" : {"ad_element_id":53674,
 "columnname":"ProductAttributeTo",
 "ad_client_id":0,
 "ad_org_id":0,
 "ad_reference_id":14,
 "ad_reference_value_id":null,
 "created":"2008-07-28T22:51:10",
 "createdby":0,
 "description":"Product Attribute Instance Description",
 "entitytype":"Manufacturing Management",
 "fieldlength":10,
 "help":null,
 "isactive":"Y",
 "name":"Product Attribute To",
 "po_description":null,
 "po_help":null,
 "po_name":null,
 "po_printname":null,
 "printname":"Product Attribute To",
 "updated":"2008-07-28T22:59:25",
 "updatedby":0}, "children" : []},
 {"tablename" : "ad_element", "data" : {"ad_element_id":53712,
 "columnname":"CostCollectorType",
 "ad_client_id":0,
 "ad_org_id":0,
 "ad_reference_id":17,
 "ad_reference_value_id":53287,
 "created":"2008-12-08T21:16:59",
 "createdby":0,
 "description":"Transaction Type for Manufacturing Management",
 "entitytype":"Manufacturing Management",
 "fieldlength":3,
 "help":null,
 "isactive":"Y",
 "name":"Cost Collector Type",
 "po_description":null,
 "po_help":null,
 "po_name":null,
 "po_printname":null,
 "printname":"Cost Collector Type",
 "updated":"2008-12-08T21:16:59",
 "updatedby":0}, "children" : []}]