[{"tablename" : "ad_alert", "data" : {"ad_alert_id":100,
 "name":"Space in Database",
 "ad_alertprocessor_id":100,
 "ad_client_id":0,
 "ad_org_id":0,
 "alertmessage":"Check that the Adempiere Database has sufficient space:\n",
 "alertsubject":"Adempiere Database Space",
 "created":"2004-09-03T23:39:57",
 "createdby":0,
 "description":"Oracle specific",
 "enforceclientsecurity":"N",
 "enforcerolesecurity":"N",
 "help":null,
 "isactive":"Y",
 "isvalid":"Y",
 "updated":"2000-01-02T00:00:00",
 "updatedby":0}, "children" : []}]