[{"tablename" : "ad_printcolor", "data" : {"ad_printcolor_id":100,
 "name":"Black",
 "ad_client_id":0,
 "ad_org_id":0,
 "code":".",
 "created":"2002-07-11T22:10:23",
 "createdby":0,
 "isactive":"Y",
 "isdefault":"Y",
 "updated":"2000-01-02T00:00:00",
 "updatedby":0}, "children" : []},
 {"tablename" : "ad_printcolor", "data" : {"ad_printcolor_id":102,
 "name":"Red",
 "ad_client_id":0,
 "ad_org_id":0,
 "code":"-65536",
 "created":"2002-07-24T16:18:40",
 "createdby":0,
 "isactive":"Y",
 "isdefault":"N",
 "updated":"2000-01-02T00:00:00",
 "updatedby":0}, "children" : []},
 {"tablename" : "ad_printcolor", "data" : {"ad_printcolor_id":103,
 "name":"Green",
 "ad_client_id":0,
 "ad_org_id":0,
 "code":"-16711936",
 "created":"2002-07-24T16:18:40",
 "createdby":0,
 "isactive":"Y",
 "isdefault":"N",
 "updated":"2000-01-02T00:00:00",
 "updatedby":0}, "children" : []},
 {"tablename" : "ad_printcolor", "data" : {"ad_printcolor_id":104,
 "name":"Blue",
 "ad_client_id":0,
 "ad_org_id":0,
 "code":"-16776961",
 "created":"2002-07-24T16:18:42",
 "createdby":0,
 "isactive":"Y",
 "isdefault":"N",
 "updated":"2000-01-02T00:00:00",
 "updatedby":0}, "children" : []},
 {"tablename" : "ad_printcolor", "data" : {"ad_printcolor_id":105,
 "name":"Gray dark",
 "ad_client_id":0,
 "ad_org_id":0,
 "code":"-12566464",
 "created":"2002-07-24T16:18:42",
 "createdby":0,
 "isactive":"Y",
 "isdefault":"N",
 "updated":"2000-01-02T00:00:00",
 "updatedby":0}, "children" : []},
 {"tablename" : "ad_printcolor", "data" : {"ad_printcolor_id":106,
 "name":"Gray",
 "ad_client_id":0,
 "ad_org_id":0,
 "code":"-8355712",
 "created":"2002-07-24T16:18:42",
 "createdby":0,
 "isactive":"Y",
 "isdefault":"N",
 "updated":"2000-01-02T00:00:00",
 "updatedby":0}, "children" : []},
 {"tablename" : "ad_printcolor", "data" : {"ad_printcolor_id":107,
 "name":"Gray light",
 "ad_client_id":0,
 "ad_org_id":0,
 "code":"-4144960",
 "created":"2002-07-24T16:18:43",
 "createdby":0,
 "isactive":"Y",
 "isdefault":"N",
 "updated":"2000-01-02T00:00:00",
 "updatedby":0}, "children" : []},
 {"tablename" : "ad_printcolor", "data" : {"ad_printcolor_id":108,
 "name":"White",
 "ad_client_id":0,
 "ad_org_id":0,
 "code":"-1",
 "created":"2002-07-24T16:18:43",
 "createdby":0,
 "isactive":"Y",
 "isdefault":"N",
 "updated":"2000-01-02T00:00:00",
 "updatedby":0}, "children" : []},
 {"tablename" : "ad_printcolor", "data" : {"ad_printcolor_id":109,
 "name":"Cyan",
 "ad_client_id":0,
 "ad_org_id":0,
 "code":"-16711681",
 "created":"2002-07-24T16:18:43",
 "createdby":0,
 "isactive":"Y",
 "isdefault":"N",
 "updated":"2000-01-02T00:00:00",
 "updatedby":0}, "children" : []},
 {"tablename" : "ad_printcolor", "data" : {"ad_printcolor_id":110,
 "name":"Magenta",
 "ad_client_id":0,
 "ad_org_id":0,
 "code":"-65281",
 "created":"2002-07-24T16:18:43",
 "createdby":0,
 "isactive":"Y",
 "isdefault":"N",
 "updated":"2000-01-02T00:00:00",
 "updatedby":0}, "children" : []},
 {"tablename" : "ad_printcolor", "data" : {"ad_printcolor_id":111,
 "name":"Orange",
 "ad_client_id":0,
 "ad_org_id":0,
 "code":"-14336",
 "created":"2002-07-24T16:18:43",
 "createdby":0,
 "isactive":"Y",
 "isdefault":"N",
 "updated":"2000-01-02T00:00:00",
 "updatedby":0}, "children" : []},
 {"tablename" : "ad_printcolor", "data" : {"ad_printcolor_id":112,
 "name":"Pink",
 "ad_client_id":0,
 "ad_org_id":0,
 "code":"-20561",
 "created":"2002-07-24T16:18:43",
 "createdby":0,
 "isactive":"Y",
 "isdefault":"N",
 "updated":"2000-01-02T00:00:00",
 "updatedby":0}, "children" : []},
 {"tablename" : "ad_printcolor", "data" : {"ad_printcolor_id":113,
 "name":"Yellow",
 "ad_client_id":0,
 "ad_org_id":0,
 "code":"-256",
 "created":"2002-07-24T16:18:43",
 "createdby":0,
 "isactive":"Y",
 "isdefault":"N",
 "updated":"2000-01-02T00:00:00",
 "updatedby":0}, "children" : []},
 {"tablename" : "ad_printcolor", "data" : {"ad_printcolor_id":114,
 "name":"Blue dark",
 "ad_client_id":0,
 "ad_org_id":0,
 "code":"-16112534",
 "created":"2002-07-24T16:18:43",
 "createdby":0,
 "isactive":"Y",
 "isdefault":"N",
 "updated":"2000-01-02T00:00:00",
 "updatedby":0}, "children" : []},
 {"tablename" : "ad_printcolor", "data" : {"ad_printcolor_id":115,
 "name":"Gray white",
 "ad_client_id":0,
 "ad_org_id":0,
 "code":"-2039584",
 "created":"2002-08-04T19:49:32",
 "createdby":0,
 "isactive":"Y",
 "isdefault":"N",
 "updated":"2000-01-02T00:00:00",
 "updatedby":0}, "children" : []},
 {"tablename" : "ad_printcolor", "data" : {"ad_printcolor_id":116,
 "name":"Green dark",
 "ad_client_id":0,
 "ad_org_id":0,
 "code":"-16744448",
 "created":"2002-08-04T19:49:32",
 "createdby":0,
 "isactive":"Y",
 "isdefault":"N",
 "updated":"2000-01-02T00:00:00",
 "updatedby":0}, "children" : []},
 {"tablename" : "ad_printcolor", "data" : {"ad_printcolor_id":117,
 "name":"Green black",
 "ad_client_id":0,
 "ad_org_id":0,
 "code":"-16760832",
 "created":"2002-08-04T19:49:32",
 "createdby":0,
 "isactive":"Y",
 "isdefault":"N",
 "updated":"2000-01-02T00:00:00",
 "updatedby":0}, "children" : []},
 {"tablename" : "ad_printcolor", "data" : {"ad_printcolor_id":119,
 "name":"Blue black",
 "ad_client_id":0,
 "ad_org_id":0,
 "code":"-16777152",
 "created":"2002-08-04T19:49:33",
 "createdby":0,
 "isactive":"Y",
 "isdefault":"N",
 "updated":"2000-01-02T00:00:00",
 "updatedby":0}, "children" : []},
 {"tablename" : "ad_printcolor", "data" : {"ad_printcolor_id":120,
 "name":"Brown",
 "ad_client_id":0,
 "ad_org_id":0,
 "code":"-6724045",
 "created":"2002-08-04T20:10:35",
 "createdby":0,
 "isactive":"Y",
 "isdefault":"N",
 "updated":"2000-01-02T00:00:00",
 "updatedby":0}, "children" : []},
 {"tablename" : "ad_printcolor", "data" : {"ad_printcolor_id":121,
 "name":"Brown dark",
 "ad_client_id":0,
 "ad_org_id":0,
 "code":"-10079488",
 "created":"2002-08-04T20:10:36",
 "createdby":0,
 "isactive":"Y",
 "isdefault":"N",
 "updated":"2000-01-02T00:00:00",
 "updatedby":0}, "children" : []}]