[{"tablename" : "ad_treenode", "data" : {"ad_client_id":0,
 "ad_org_id":0,
 "ad_tree_id":30,
 "created":"1999-11-16T14:56:39",
 "createdby":0,
 "isactive":"Y",
 "node_id":0,
 "parent_id":null,
 "seqno":0,
 "updated":"2000-01-02T00:00:00",
 "updatedby":0}, "children" : []},
 {"tablename" : "ad_treenode", "data" : {"ad_client_id":0,
 "ad_org_id":0,
 "ad_tree_id":40,
 "created":"1999-11-16T14:57:10",
 "createdby":0,
 "isactive":"Y",
 "node_id":0,
 "parent_id":null,
 "seqno":0,
 "updated":"2000-01-02T00:00:00",
 "updatedby":0}, "children" : []},
 {"tablename" : "ad_treenode", "data" : {"ad_client_id":0,
 "ad_org_id":0,
 "ad_tree_id":40,
 "created":"1999-12-14T18:38:42",
 "createdby":0,
 "isactive":"Y",
 "node_id":100,
 "parent_id":0,
 "seqno":999,
 "updated":"2000-01-02T00:00:00",
 "updatedby":0}, "children" : []},
 {"tablename" : "ad_treenode", "data" : {"ad_client_id":0,
 "ad_org_id":0,
 "ad_tree_id":50,
 "created":"1999-11-16T14:57:44",
 "createdby":0,
 "isactive":"Y",
 "node_id":0,
 "parent_id":null,
 "seqno":0,
 "updated":"2000-01-02T00:00:00",
 "updatedby":0}, "children" : []}]