[{"tablename" : "ad_tree", "data" : {"ad_tree_id":10,
 "name":"Menu",
 "ad_client_id":0,
 "ad_org_id":0,
 "created":"1999-11-16T14:55:07",
 "createdby":0,
 "description":"Primary Menu",
 "isactive":"Y",
 "isallnodes":"Y",
 "isdefault":"N",
 "processing":null,
 "treetype":"MM",
 "updated":"2000-01-02T00:00:00",
 "updatedby":0}, "children" : []},
 {"tablename" : "ad_tree", "data" : {"ad_tree_id":20,
 "name":"(Primary Account Element Value)",
 "ad_client_id":0,
 "ad_org_id":0,
 "created":"1999-11-16T14:56:00",
 "createdby":0,
 "description":"DO NOT USE",
 "isactive":"Y",
 "isallnodes":"Y",
 "isdefault":"N",
 "processing":null,
 "treetype":"EV",
 "updated":"2004-12-28T13:16:03",
 "updatedby":100}, "children" : []},
 {"tablename" : "ad_tree", "data" : {"ad_tree_id":30,
 "name":"(Primary Product)",
 "ad_client_id":0,
 "ad_org_id":0,
 "created":"1999-11-16T14:56:39",
 "createdby":0,
 "description":"DO NOT USE",
 "isactive":"Y",
 "isallnodes":"Y",
 "isdefault":"N",
 "processing":null,
 "treetype":"PR",
 "updated":"2004-12-28T13:16:37",
 "updatedby":100}, "children" : []},
 {"tablename" : "ad_tree", "data" : {"ad_tree_id":40,
 "name":"(Primary Business Partner)",
 "ad_client_id":0,
 "ad_org_id":0,
 "created":"1999-11-16T14:57:10",
 "createdby":0,
 "description":"DO NOT USE",
 "isactive":"Y",
 "isallnodes":"Y",
 "isdefault":"N",
 "processing":null,
 "treetype":"BP",
 "updated":"2004-12-28T13:16:15",
 "updatedby":100}, "children" : []},
 {"tablename" : "ad_tree", "data" : {"ad_tree_id":50,
 "name":"(Primary Organization)",
 "ad_client_id":0,
 "ad_org_id":0,
 "created":"1999-11-16T14:57:44",
 "createdby":0,
 "description":"DO NOT USE",
 "isactive":"Y",
 "isallnodes":"Y",
 "isdefault":"N",
 "processing":null,
 "treetype":"OO",
 "updated":"2004-12-28T13:16:28",
 "updatedby":100}, "children" : []},
 {"tablename" : "ad_tree", "data" : {"ad_tree_id":60,
 "name":"(Primary Project)",
 "ad_client_id":0,
 "ad_org_id":0,
 "created":"1999-11-16T14:58:45",
 "createdby":0,
 "description":"DO NOT USE",
 "isactive":"Y",
 "isallnodes":"Y",
 "isdefault":"N",
 "processing":null,
 "treetype":"PJ",
 "updated":"2004-12-28T13:16:48",
 "updatedby":100}, "children" : []},
 {"tablename" : "ad_tree", "data" : {"ad_tree_id":100,
 "name":"(Primary Sales Region)",
 "ad_client_id":0,
 "ad_org_id":0,
 "created":"1999-12-09T20:35:07",
 "createdby":0,
 "description":"DO NOT USE",
 "isactive":"Y",
 "isallnodes":"Y",
 "isdefault":"N",
 "processing":null,
 "treetype":"SR",
 "updated":"2004-12-28T13:16:59",
 "updatedby":100}, "children" : []}]