[{"tablename" : "ad_user", "data" : {"ad_user_id":0,
 "name":"System",
 "ad_client_id":0,
 "ad_org_id":0,
 "ad_orgtrx_id":null,
 "birthday":null,
 "bp_location_id":null,
 "bpname":null,
 "c_bpartner_id":null,
 "c_bpartner_location_id":null,
 "c_campaign_id":null,
 "c_greeting_id":null,
 "c_job_id":null,
 "c_location_id":null,
 "comments":null,
 "connectionprofile":null,
 "created":"1999-11-12T20:41:43",
 "createdby":0,
 "description":"** Do not change **",
 "email":null,
 "emailuser":null,
 "emailuserpw":null,
 "emailverify":null,
 "emailverifydate":null,
 "fax":null,
 "isactive":"Y",
 "isdefaultcontact":"N",
 "isfullbpaccess":"Y",
 "isinpayroll":"N",
 "issaleslead":"N",
 "iswebstoreuser":"N",
 "lastcontact":null,
 "lastresult":null,
 "leadsource":null,
 "leadsourcedescription":null,
 "leadstatus":null,
 "leadstatusdescription":null,
 "notificationtype":"E",
 "password":"System",
 "phone":null,
 "phone2":null,
 "processing":null,
 "salesrep_id":null,
 "salt":null,
 "supervisor_id":100,
 "title":null,
 "updated":"2000-01-02T00:00:00",
 "updatedby":0,
 "userpin":null,
 "value":"system"}, "children" : []},
 {"tablename" : "ad_user", "data" : {"ad_user_id":100,
 "name":"Super Administrator",
 "ad_client_id":0,
 "ad_org_id":0,
 "ad_orgtrx_id":null,
 "birthday":null,
 "bp_location_id":null,
 "bpname":null,
 "c_bpartner_id":null,
 "c_bpartner_location_id":null,
 "c_campaign_id":null,
 "c_greeting_id":null,
 "c_job_id":null,
 "c_location_id":null,
 "comments":null,
 "connectionprofile":null,
 "created":"1999-12-09T18:15:00",
 "createdby":0,
 "description":"Super Administrator with Access to all levels",
 "email":null,
 "emailuser":null,
 "emailuserpw":null,
 "emailverify":null,
 "emailverifydate":null,
 "fax":null,
 "isactive":"Y",
 "isdefaultcontact":"N",
 "isfullbpaccess":"Y",
 "isinpayroll":"N",
 "issaleslead":"N",
 "iswebstoreuser":"N",
 "lastcontact":null,
 "lastresult":null,
 "leadsource":null,
 "leadsourcedescription":null,
 "leadstatus":null,
 "leadstatusdescription":null,
 "notificationtype":"E",
 "password":"System",
 "phone":null,
 "phone2":null,
 "processing":null,
 "salesrep_id":null,
 "salt":null,
 "supervisor_id":null,
 "title":null,
 "updated":"2019-12-05T00:12:18",
 "updatedby":100,
 "userpin":null,
 "value":"superadmin"}, "children" : []}]