[{"tablename" : "ad_workflow_access", "data" : {"ad_client_id":0,
 "ad_org_id":0,
 "ad_role_id":0,
 "ad_workflow_id":103,
 "created":"2016-07-01T00:55:39.667494",
 "createdby":0,
 "isactive":"Y",
 "isreadwrite":"Y",
 "updated":"2016-07-01T00:55:39.667494",
 "updatedby":0}, "children" : []},
 {"tablename" : "ad_workflow_access", "data" : {"ad_client_id":0,
 "ad_org_id":0,
 "ad_role_id":0,
 "ad_workflow_id":109,
 "created":"2016-07-01T00:55:39.667494",
 "createdby":0,
 "isactive":"Y",
 "isreadwrite":"Y",
 "updated":"2016-07-01T00:55:39.667494",
 "updatedby":0}, "children" : []},
 {"tablename" : "ad_workflow_access", "data" : {"ad_client_id":0,
 "ad_org_id":0,
 "ad_role_id":0,
 "ad_workflow_id":112,
 "created":"2016-07-01T00:55:39.667494",
 "createdby":0,
 "isactive":"Y",
 "isreadwrite":"Y",
 "updated":"2016-07-01T00:55:39.667494",
 "updatedby":0}, "children" : []},
 {"tablename" : "ad_workflow_access", "data" : {"ad_client_id":0,
 "ad_org_id":0,
 "ad_role_id":0,
 "ad_workflow_id":113,
 "created":"2016-07-01T00:55:39.667494",
 "createdby":0,
 "isactive":"Y",
 "isreadwrite":"Y",
 "updated":"2016-07-01T00:55:39.667494",
 "updatedby":0}, "children" : []}]