[{"tablename" : "ad_zoomcondition", "data" : {"ad_zoomcondition_id":50000,
 "name":"Zoom to Internal Use",
 "ad_client_id":0,
 "ad_org_id":0,
 "ad_table_id":321,
 "ad_window_id":341,
 "created":"2016-04-07T15:08:23",
 "createdby":100,
 "description":null,
 "isactive":"Y",
 "seqno":10,
 "updated":"2016-07-01T00:51:11",
 "updatedby":0,
 "whereclause":"(SELECT COUNT(*) FROM M_InventoryLine WHERE M_InventoryLine.M_Inventory_ID = M_Inventory.M_Inventory_ID AND M_InventoryLine.QtyInternalUse <> 0) > 0",
 "zoomlogic":null}, "children" : []},
 {"tablename" : "ad_zoomcondition", "data" : {"ad_zoomcondition_id":50001,
 "name":"Planned Manufacturing Order",
 "ad_client_id":0,
 "ad_org_id":0,
 "ad_table_id":54052,
 "ad_window_id":53465,
 "created":"2016-04-07T16:31:27",
 "createdby":100,
 "description":null,
 "isactive":"Y",
 "seqno":10,
 "updated":"2016-04-07T16:31:27",
 "updatedby":100,
 "whereclause":"EXISTS (SELECT * FROM c_doctype WHERE docbasetype = 'MPO' AND c_doctype_id = m_production_batch.c_doctype_id)",
 "zoomlogic":null}, "children" : []},
 {"tablename" : "ad_zoomcondition", "data" : {"ad_zoomcondition_id":50003,
 "name":null,
 "ad_client_id":0,
 "ad_org_id":0,
 "ad_table_id":325,
 "ad_window_id":53465,
 "created":"2016-05-25T12:18:49",
 "createdby":100,
 "description":null,
 "isactive":"Y",
 "seqno":10,
 "updated":"2016-05-25T12:18:49",
 "updatedby":100,
 "whereclause":"EXISTS (SELECT * FROM c_doctype WHERE docbasetype = 'MPO' AND c_doctype_id = m_production.c_doctype_id)",
 "zoomlogic":null}, "children" : []},
 {"tablename" : "ad_zoomcondition", "data" : {"ad_zoomcondition_id":50005,
 "name":"Journal Batch",
 "ad_client_id":0,
 "ad_org_id":0,
 "ad_table_id":224,
 "ad_window_id":132,
 "created":"2016-09-29T14:55:17",
 "createdby":100,
 "description":null,
 "isactive":"Y",
 "seqno":10,
 "updated":"2016-09-29T14:55:17",
 "updatedby":100,
 "whereclause":"GL_JournalBatch_ID IS NOT NULL",
 "zoomlogic":null}, "children" : []}]