[{"tablename" : "c_city", "data" : {"c_city_id":100,
 "name":"Monroe",
 "ad_client_id":0,
 "ad_org_id":0,
 "areacode":"203",
 "c_country_id":100,
 "coordinates":null,
 "created":"2002-08-10T16:51:00",
 "createdby":0,
 "c_region_id":null,
 "isactive":"Y",
 "locode":null,
 "postal":"06468",
 "updated":"2000-01-02T00:00:00",
 "updatedby":0}, "children" : []}]