[{"tablename" : "c_location", "data" : {"c_location_id":109,
 "city":"Monroe",
 "ad_client_id":0,
 "address1":"40 Old Tannery Rd",
 "address2":null,
 "address3":null,
 "address4":null,
 "ad_org_id":0,
 "c_city_id":100,
 "c_country_id":100,
 "created":"2000-02-26T00:00:00",
 "createdby":0,
 "c_region_id":102,
 "isactive":"Y",
 "latitude":null,
 "longitude":null,
 "postal":"06468",
 "postal_add":null,
 "regionname":null,
 "updated":"2000-01-02T00:00:00",
 "updatedby":0}, "children" : []}]